{
    "parameterSets": {
        "lores": {
            "facets": "6",
            "roundiness": "1"
        },
        "midres": {
            "facets": "25",
            "roundiness": "1"
        },
        "hires": {
            "facets": "100",
            "roundiness": "1"
        }
    },
    "fileFormatVersion": "1"
}
